\relax 
\abx@aux@refcontext{none/global//global/global}
\providecommand*\new@tpo@label[2]{}
\@writefile{toc}{\boolfalse {citerequest}\boolfalse {citetracker}\boolfalse {pagetracker}\boolfalse {backtracker}\relax }
\@writefile{lof}{\boolfalse {citerequest}\boolfalse {citetracker}\boolfalse {pagetracker}\boolfalse {backtracker}\relax }
\@writefile{lot}{\boolfalse {citerequest}\boolfalse {citetracker}\boolfalse {pagetracker}\boolfalse {backtracker}\relax }
\@writefile{toc}{\defcounter {refsection}{0}\relax }\@writefile{toc}{\contentsline {subsection}{\numberline {0.1}用户提交转出交易}{1}\protected@file@percent }
\newlabel{ux7528ux6237ux63d0ux4ea4ux8f6cux51faux4ea4ux6613}{{0.1}{1}}
\@writefile{toc}{\defcounter {refsection}{0}\relax }\@writefile{toc}{\contentsline {subsubsection}{\numberline {0.1.1}假设}{1}\protected@file@percent }
\newlabel{ux5047ux8bbe}{{0.1.1}{1}}
\@writefile{toc}{\defcounter {refsection}{0}\relax }\@writefile{toc}{\contentsline {subsection}{\numberline {0.2}交易的生命周期}{2}\protected@file@percent }
\newlabel{ux4ea4ux6613ux7684ux751fux547dux5468ux671f}{{0.2}{2}}
\@writefile{toc}{\defcounter {refsection}{0}\relax }\@writefile{toc}{\contentsline {subsubsection}{\numberline {0.2.1}接受交易}{2}\protected@file@percent }
\newlabel{ux63a5ux53d7ux4ea4ux6613}{{0.2.1}{2}}
\@writefile{toc}{\defcounter {refsection}{0}\relax }\@writefile{toc}{\contentsline {subsubsection}{\numberline {0.2.2}与其他验证者共享交易}{2}\protected@file@percent }
\newlabel{ux4e0eux5176ux4ed6ux9a8cux8bc1ux8005ux5171ux4eabux4ea4ux6613}{{0.2.2}{2}}
\@writefile{toc}{\defcounter {refsection}{0}\relax }\@writefile{toc}{\contentsline {subsubsection}{\numberline {0.2.3}提议新区块}{2}\protected@file@percent }
\newlabel{ux63d0ux8baeux65b0ux533aux5757}{{0.2.3}{2}}
\@writefile{toc}{\defcounter {refsection}{0}\relax }\@writefile{toc}{\contentsline {subsubsection}{\numberline {0.2.4}执行区块中的交易并达成共识}{2}\protected@file@percent }
\newlabel{ux6267ux884cux533aux5757ux4e2dux7684ux4ea4ux6613ux5e76ux8fbeux6210ux5171ux8bc6}{{0.2.4}{2}}
\@writefile{toc}{\defcounter {refsection}{0}\relax }\@writefile{toc}{\contentsline {subsubsection}{\numberline {0.2.5}写入区块}{3}\protected@file@percent }
\newlabel{ux5199ux5165ux533aux5757}{{0.2.5}{3}}
\@writefile{toc}{\defcounter {refsection}{0}\relax }\@writefile{toc}{\contentsline {subsection}{\numberline {0.3}Validator的组件之间的交互}{3}\protected@file@percent }
\newlabel{validatorux7684ux7ec4ux4ef6ux4e4bux95f4ux7684ux4ea4ux4e92}{{0.3}{3}}
\@writefile{toc}{\defcounter {refsection}{0}\relax }\@writefile{toc}{\contentsline {subsection}{\numberline {0.4}准入控制组件（AC）}{4}\protected@file@percent }
\newlabel{ux51c6ux5165ux63a7ux5236ux7ec4ux4ef6ac}{{0.4}{4}}
\@writefile{toc}{\defcounter {refsection}{0}\relax }\@writefile{toc}{\contentsline {subsubsection}{\numberline {0.4.1}Client → AC (AC.1)}{4}\protected@file@percent }
\newlabel{client-ac-ac.1}{{0.4.1}{4}}
\@writefile{toc}{\defcounter {refsection}{0}\relax }\@writefile{toc}{\contentsline {subsubsection}{\numberline {0.4.2}AC → VM (AC.2)}{4}\protected@file@percent }
\newlabel{ac-vm-ac.2}{{0.4.2}{4}}
\@writefile{toc}{\defcounter {refsection}{0}\relax }\@writefile{toc}{\contentsline {subsubsection}{\numberline {0.4.3}AC → Mempool (AC.3)}{4}\protected@file@percent }
\newlabel{ac-mempool-ac.3}{{0.4.3}{4}}
\@writefile{toc}{\defcounter {refsection}{0}\relax }\@writefile{toc}{\contentsline {subsubsection}{\numberline {0.4.4}AC → Storage (AC.4)}{4}\protected@file@percent }
\newlabel{ac-storage-ac.4}{{0.4.4}{4}}
\@writefile{toc}{\defcounter {refsection}{0}\relax }\@writefile{toc}{\contentsline {subsubsection}{\numberline {0.4.5}准入控制自述文件}{4}\protected@file@percent }
\newlabel{ux51c6ux5165ux63a7ux5236ux81eaux8ff0ux6587ux4ef6}{{0.4.5}{4}}
\@writefile{toc}{\defcounter {refsection}{0}\relax }\@writefile{toc}{\contentsline {subsection}{\numberline {0.5}虚拟机组件(VM)}{4}\protected@file@percent }
\newlabel{ux865aux62dfux673aux7ec4ux4ef6vm}{{0.5}{4}}
\@writefile{toc}{\defcounter {refsection}{0}\relax }\@writefile{toc}{\contentsline {subsubsection}{\numberline {0.5.1}AC → VM (VM.1)}{4}\protected@file@percent }
\newlabel{ac-vm-vm.1}{{0.5.1}{4}}
\@writefile{toc}{\defcounter {refsection}{0}\relax }\@writefile{toc}{\contentsline {subsubsection}{\numberline {0.5.2}VM → Storage (VM.2)}{5}\protected@file@percent }
\newlabel{vm-storage-vm.2}{{0.5.2}{5}}
\@writefile{toc}{\defcounter {refsection}{0}\relax }\@writefile{toc}{\contentsline {subsubsection}{\numberline {0.5.3}Execution → VM (VM.3)}{5}\protected@file@percent }
\newlabel{execution-vm-vm.3}{{0.5.3}{5}}
\@writefile{toc}{\defcounter {refsection}{0}\relax }\@writefile{toc}{\contentsline {subsubsection}{\numberline {0.5.4}Mempool → VM (VM.4)}{5}\protected@file@percent }
\newlabel{mempool-vm-vm.4}{{0.5.4}{5}}
\@writefile{toc}{\defcounter {refsection}{0}\relax }\@writefile{toc}{\contentsline {subsubsection}{\numberline {0.5.5}VM README}{5}\protected@file@percent }
\newlabel{vm-readme}{{0.5.5}{5}}
\@writefile{toc}{\defcounter {refsection}{0}\relax }\@writefile{toc}{\contentsline {subsection}{\numberline {0.6}内存池(Mempool)}{5}\protected@file@percent }
\newlabel{ux5185ux5b58ux6c60mempool}{{0.6}{5}}
\@writefile{toc}{\defcounter {refsection}{0}\relax }\@writefile{toc}{\contentsline {subsubsection}{\numberline {0.6.1}AC → Mempool (MP.1)}{5}\protected@file@percent }
\newlabel{ac-mempool-mp.1}{{0.6.1}{5}}
\@writefile{toc}{\defcounter {refsection}{0}\relax }\@writefile{toc}{\contentsline {subsubsection}{\numberline {0.6.2}Mempool → Other Validators (MP.2)}{6}\protected@file@percent }
\newlabel{mempool-other-validators-mp.2}{{0.6.2}{6}}
\@writefile{toc}{\defcounter {refsection}{0}\relax }\@writefile{toc}{\contentsline {subsubsection}{\numberline {0.6.3}Consensus → Mempool (MP.3)}{6}\protected@file@percent }
\newlabel{consensus-mempool-mp.3}{{0.6.3}{6}}
\@writefile{toc}{\defcounter {refsection}{0}\relax }\@writefile{toc}{\contentsline {subsubsection}{\numberline {0.6.4}Mempool → VM (MP.4)}{6}\protected@file@percent }
\newlabel{mempool-vm-mp.4}{{0.6.4}{6}}
\@writefile{toc}{\defcounter {refsection}{0}\relax }\@writefile{toc}{\contentsline {subsubsection}{\numberline {0.6.5}Mempool README}{6}\protected@file@percent }
\newlabel{mempool-readme}{{0.6.5}{6}}
\@writefile{toc}{\defcounter {refsection}{0}\relax }\@writefile{toc}{\contentsline {subsection}{\numberline {0.7}共识组件(Consensus)}{6}\protected@file@percent }
\newlabel{ux5171ux8bc6ux7ec4ux4ef6consensus}{{0.7}{6}}
\@writefile{toc}{\defcounter {refsection}{0}\relax }\@writefile{toc}{\contentsline {subsubsection}{\numberline {0.7.1}Consensus → Mempool (CO.1)}{6}\protected@file@percent }
\newlabel{consensus-mempool-co.1}{{0.7.1}{6}}
\@writefile{toc}{\defcounter {refsection}{0}\relax }\@writefile{toc}{\contentsline {subsubsection}{\numberline {0.7.2}Consensus → Other Validators (CO.2)}{7}\protected@file@percent }
\newlabel{consensus-other-validators-co.2}{{0.7.2}{7}}
\@writefile{toc}{\defcounter {refsection}{0}\relax }\@writefile{toc}{\contentsline {subsubsection}{\numberline {0.7.3}Consensus → Execution, Consensus → Other Validators (CO.3)}{7}\protected@file@percent }
\newlabel{consensus-execution-consensus-other-validators-co.3}{{0.7.3}{7}}
\@writefile{toc}{\defcounter {refsection}{0}\relax }\@writefile{toc}{\contentsline {subsubsection}{\numberline {0.7.4}Consensus → Execution (CO.4)}{7}\protected@file@percent }
\newlabel{consensus-execution-co.4}{{0.7.4}{7}}
\@writefile{toc}{\defcounter {refsection}{0}\relax }\@writefile{toc}{\contentsline {subsubsection}{\numberline {0.7.5}Consensus README}{7}\protected@file@percent }
\newlabel{consensus-readme}{{0.7.5}{7}}
\@writefile{toc}{\defcounter {refsection}{0}\relax }\@writefile{toc}{\contentsline {subsection}{\numberline {0.8}执行组件(Execution)}{7}\protected@file@percent }
\newlabel{ux6267ux884cux7ec4ux4ef6execution}{{0.8}{7}}
\@writefile{toc}{\defcounter {refsection}{0}\relax }\@writefile{toc}{\contentsline {subsubsection}{\numberline {0.8.1}Consensus → Execution (EX.1)}{7}\protected@file@percent }
\newlabel{consensus-execution-ex.1}{