\relax 
\select@language {english}
\@writefile{toc}{\select@language {english}}
\@writefile{lof}{\select@language {english}}
\@writefile{lot}{\select@language {english}}
\@writefile{toc}{\contentsline {section}{\numberline {0.1}title: 转账的生命周期}{1}\protected@file@percent }
\@writefile{toc}{\contentsline {section}{\numberline {0.2}用户提交转出交易}{1}\protected@file@percent }
\@writefile{toc}{\contentsline {subsection}{\numberline {0.2.1}假设}{1}\protected@file@percent }
\newlabel{fig:Figure 1.1 Lifecycle of a Transaction}{{0.3}{2}}
\@writefile{toc}{\contentsline {section}{\numberline {0.3}交易的生命周期}{2}\protected@file@percent }
\@writefile{toc}{\contentsline {subsection}{\numberline {0.3.1}接受交易}{2}\protected@file@percent }
\@writefile{toc}{\contentsline {subsection}{\numberline {0.3.2}与其他验证者共享交易}{2}\protected@file@percent }
\@writefile{toc}{\contentsline {subsection}{\numberline {0.3.3}提议新区块}{2}\protected@file@percent }
\@writefile{toc}{\contentsline {subsection}{\numberline {0.3.4}执行区块中的交易并达成共识}{2}\protected@file@percent }
\newlabel{fig:Figure 1.2 Admission Control}{{0.5}{3}}
\@writefile{toc}{\contentsline {subsection}{\numberline {0.3.5}写入区块}{3}\protected@file@percent }
\@writefile{toc}{\contentsline {section}{\numberline {0.4}Validator的组件之间的交互}{3}\protected@file@percent }
\@writefile{toc}{\contentsline {section}{\numberline {0.5}准入控制组件（AC）}{3}\protected@file@percent }
\newlabel{fig:Figure 1.3 Virtual Machine}{{0.6}{4}}
\@writefile{toc}{\contentsline {subsection}{\numberline {0.5.1}Client → AC (AC.1)}{4}\protected@file@percent }
\@writefile{toc}{\contentsline {subsection}{\numberline {0.5.2}AC → VM (AC.2)}{4}\protected@file@percent }
\@writefile{toc}{\contentsline {subsection}{\numberline {0.5.3}AC → Mempool (AC.3)}{4}\protected@file@percent }
\@writefile{toc}{\contentsline {subsection}{\numberline {0.5.4}AC → Storage (AC.4)}{4}\protected@file@percent }
\@writefile{toc}{\contentsline {subsection}{\numberline {0.5.5}准入控制自述文件}{4}\protected@file@percent }
\@writefile{toc}{\contentsline {section}{\numberline {0.6}虚拟机组件(VM)}{4}\protected@file@percent }
\@writefile{toc}{\contentsline {subsection}{\numberline {0.6.1}AC → VM (VM.1)}{4}\protected@file@percent }
\@writefile{toc}{\contentsline {subsection}{\numberline {0.6.2}VM → Storage (VM.2)}{4}\protected@file@percent }
\newlabel{fig:Figure 1.4 Mempool}{{0.7}{5}}
\@writefile{toc}{\contentsline {subsection}{\numberline {0.6.3}Execution → VM (VM.3)}{5}\protected@file@percent }
\@writefile{toc}{\contentsline {subsection}{\numberline {0.6.4}Mempool → VM (VM.4)}{5}\protected@file@percent }
\@writefile{toc}{\contentsline {subsection}{\numberline {0.6.5}VM README}{5}\protected@file@percent }
\@writefile{toc}{\contentsline {section}{\numberline {0.7}内存池(Mempool)}{5}\protected@file@percent }
\@writefile{toc}{\contentsline {subsection}{\numberline {0.7.1}AC → Mempool (MP.1)}{5}\protected@file@percent }
\@writefile{toc}{\contentsline {subsection}{\numberline {0.7.2}Mempool → Other Validators (MP.2)}{5}\protected@file@percent }
\@writefile{toc}{\contentsline {subsection}{\numberline {0.7.3}Consensus → Mempool (MP.3)}{5}\protected@file@percent }
\@writefile{toc}{\contentsline {subsection}{\numberline {0.7.4}Mempool → VM (MP.4)}{5}\protected@file@percent }
\@writefile{toc}{\contentsline {subsection}{\numberline {0.7.5}Mempool README}{5}\protected@file@percent }
\newlabel{fig:Figure 1.5 Consensus}{{0.8}{6}}
\newlabel{fig:Figure 1.6 Execution}{{0.9}{6}}
\@writefile{toc}{\contentsline {section}{\numberline {0.8}共识组件(Consensus)}{6}\protected@file@percent }
\@writefile{toc}{\contentsline {subsection}{\numberline {0.8.1}Consensus → Mempool (CO.1)}{6}\protected@file@percent }
\@writefile{toc}{\contentsline {subsection}{\numberline {0.8.2}Consensus → Other Validators (CO.2)}{6}\protected@file@percent }
\@writefile{toc}{\contentsline {subsection}{\numberline {0.8.3}Consensus → Execution, Consensus → Other Validators (CO.3)}{6}\protected@file@percent }
\@writefile{toc}{\contentsline {subsection}{\numberline {0.8.4}Consensus → Execution (CO.4)}{6}\protected@file@percent }
\@writefile{toc}{\contentsline {subsection}{\numberline {0.8.5}Consensus README}{6}\protected@file@percent }
\@writefile{toc}{\contentsline {section}{\numberline {0.9}执行组件(Execution)}{6}\protected@file@percent }
\@writefile{toc}{\contentsline {subsection}{\numberline {0.9.1}Consensus → Execution (EX.1)}{6}\protected@file@percent }
\newlabel{fig:Figure 1.7 Storage}{{0.10}{7}}
\@writefile{toc}{\contentsline {subsection}{\numberline {0.9.2}Execution → VM (EX.2)}{7}\protected@file@percent }
\@writefile{toc}{\contentsline {subsection}{\numberline {0.9.3}Consensus → Execution (EX.3)}{7}\protected@file@percent }
\@writefile{toc}{\contentsline {subsection}{\numberline {0.9.4}Execution → Storage (EX.4)}{7}\protected@file@percent }
\@writefile{toc}{\contentsline {subsection}{\numberline {0.9.5}Execution README}{7}\protected@file@percent }
\@writefile{toc}{\contentsline {section}{\numberline {0.10}Storage}{7}\protected@file@percent }
\@writefile{toc}{\contentsline {subsection}{\numberline {0.10.1}VM → Storage (ST.1)}{7}\protected@file@percent }
\@writefile{toc}{\contentsline {subsection}{\numberline {0.10.2}Execution → Storage (ST.2)}{7}\protected@file@percent }
\@writefile{toc}{\contentsline {subsection}{\numberline {0.10.3}Execution → Storage (ST.3)}{8}\protected@file@percent }
\@writefile{toc}{\contentsline {subsection}{\numberline {0.10.4}AC → Storage (ST.4)}{8}\protected@file@percent }
\@writefile{toc}{\contentsline {subsection}{\numberline {0.10.5}Storage README}{8}\protected@file@percent }
\@writefile{toc}{\contentsline {section}{\numberline {0.11}参考资料}{8}\protected@file@percent }
